   #FOAF

   IFRAME: //www.googletagmanager.com/ns.html?id=GTM-KJBSQR

   [p?c1=2&c2=10463284&cv=2.0&cj=1]

   ?

   (BUTTON)
   LiveJournal

     * Find more
          + Your 2021 in LJ
          + Communities
          + RSS Reader
     * Shop
     * Help
     * (BUTTON) ____________

   (BUTTON) Log in

     * ____________
       (BUTTON)
     * Log in
     * Join free Join
     *
     * English (en)
          + English (en)
          + Русский (ru)
          + Українська (uk)
          + Français (fr)
          + Português (pt)
          + español (es)
          + Deutsch (de)
          + Italiano (it)
          + Беларуская (be)

   [community.gif?v=556?v=628] pora_valit — 4 position in north region
   rating
     * [ ] Readability
     * (BUTTON)

Find posts by author
       Type username to filter posts in this community

       ____________________ (BUTTON) Apply

     * (BUTTON) More
       [community.gif?v=556?v=628] pora_valit
       4 position in north region rating
       Archive
       Filter by author
       [ ] Readability

   LiveJournal

   (BUTTON)

Log in

   No account? Create an account
   __________________
   ____________________
   [ ] Remember me
   Forgot password
   (BUTTON) Log in
   __________________
   (BUTTON) Log in
   (BUTTON) QR code
     *
     *
     *
     *
     *
     *
     *

   No account? Create an account

   By logging in to LiveJournal using a third-party service you accept
   LiveJournal's User agreement

   Поросенок Петр
     * Recent Entries
     * Friends
     * Archive
     * Profile
     * Add to friends
     * RSS

[community.gif?v=556?v=628] pora_valit
     __________________________________________________________________

Пора валить? Все об эмиграции.
     __________________________________________________________________

   Previous Entry Share Flag Next Entry
   как я не стал гражданином мира

        элито РФ
                [userinfo_v8.svg?v=17080?v=628] blazzer wrote in
                [community.gif?v=556?v=628] pora_valit
                October 22nd, 2022

          Где-то в 2005-2006 году, примерно когда нефтяные цены сравнялись
          с самомнением московских правителей, я открыл журнал "эксперт" и
          прочитал что Партией и Правительством была принята программа
          перевооружения армии РФ на сумму в 30 триллионов рублей, или
          триллион долларов. В этот момент мне как-то особенно стало ясно,
          что никакого апсайда дальше находиться в РФ нет и пора валить.
          Однако по факту я подал заявление на иммиграцию в Канаду только
          после грузийской авантюры в 2008 году, и ещё год с небольшим
          заняло закрыть все дела в РФ. В 2010 я загрузил все
          немногочисленное нажитое добро, семью и детей в чорный джып, и
          мы уехали со съёмной московской квартиры. Юридически - в никуда.
          Заявление на иммиграцию в Канаду на этот момент не то чтобы было
          одобрено, но даже и наоборот - в связи с изменениями
          законодательства была хорошая вероятность что его отразят.
          Поэтому я организовал уютный бизнесок - работая в основном на
          американские стартапы за долю в компании. Подбирал клиентов,
          работая на фриланс сайтах, упирая на количество заказов в нише.
          Технологически процесс описан тут
          https://habr.com/ru/post/285938/ . В это время я жил в основном
          между Сербией, Черногорией и Республикой Српской (Босния),
          переезжая в новую страну каждые 85 дней без виз.
          Поэтому у меня шло по факту три иммиграционных процесса
          параллельно. Главный в Канаду. Запасной "как бы" процесс в
          Сербию - там я не спеша подготавливал базу для ВНЖ к тому
          моменту когда оно понадобится. Третий был запущен ближе к концу
          скитаний, это была иммиграция в США к американскому
          бизнес-партнёру по H1B в 2011 году, когда там не было конкурса
          по этим визам.
          Однако в итоге повезло, канадцы после трёх+ лет обработки
          заявления дали иммиграционную визу. Ровно 11 лет назад, получив
          иммиграционные визы в паспорта за два дня до того, мы всем
          табором вышли из самолёта по правильную сторону атлантики и
          оформили ПМЖ в этом же аэропорту, как тут и устроено. Так я
          прекратил быть гражданином мiра и стал канадцем - а через
          несколько лет получил и канадский паспорт без всяких дальнейши
          приключений.
          Что надо делать, по опыту:
          - не знаете когда закончится иммиграционный процесс - уезжайте
          из некомфортного места немедленно, процесс может растянуться на
          годы.
          - не можете приезжать в РФ - получайте ВНЖ где угодно, вам нужна
          страна где получать документы, жить можете в других местах.
          - не имеете железных оснований на ПМЖ - ведите несколько
          иммиграционных процессов в разные страны. I can't stress it
          enough. Вам - туда, куда сможете уехать.
          - читайте официальные сайты. общайтесь с чиновниками и
          лицензированными адвокатами. Кстати, если не можете читать
          официальную информацию - вам в эту страну не надо.
          - вынуждены жить в третьих странах - работайте удалённо,
          желательно на северную америку а не на европу и тем более не на
          экс-ссср. Нет специальности - меняйте специальность. [DEL: Нет
          хлеба - покупайте пирожные. :DEL] , ну в общем это не зарплату в
          апешечке получать, хочешь жить - умей вертеться.
          Удачи.
     __________________________________________________________________

   promo [community.gif?v=556?v=628] pora_valit апрель 11, 2014 16:50 21
   Buy for 100 tokens

Community Info

     * Current price100 LJ Tokens
     * Social capital1 552
     * Community readers
     * Duration24 hours
     * Minimal stake100 LJT
     * Rules
     * View all available promo

   Как искать информацию в этом сообществе.
   В "Пора валить?" полно полезной информации(15000+ постов), эта
   инструкция поможет найти то, что вам нужно и интересно. Есть [DEL: два
   :DEL] теперь три основных способа. Первый: У каждого толкового поста
   есть "тэги", ключевые слова записи. Вот самые практичные тэги в
   сообществе, их всего три, правда…
     __________________________________________________________________

   14 comments — :
   ( 14 comments — Leave a comment )
     * ←
     * 1
     * →

   [userinfo_v8.svg?v=17080?v=628] penetrat0r
   2022-10-22 05:14 pm (UTC)
   Вот тут — другое дело. :)
     * Reply
     * Thread
     *
     __________________________________________________________________

   [userinfo_v8.svg?v=17080?v=628] nachni_dot_com
   2022-10-22 08:12 pm (UTC)
   Прикольно, что некоторым стало понятно, что в России нечего ловить в
   2005, кто-то - в 2008, кто-то в 2014, а кому-то до сих пор ещё не
   уверен. Вдруг удастся всех англосаксов победить, импортозамещение
   заработает, и экономика расцветёт, и опять всё разрешат и власти начнут
   прислушиваться и уважительно относиться?
     * Reply
     * Thread
     *
     __________________________________________________________________

   [userinfo_v8.svg?v=17080?v=628] kh_sugutskiy
   2022-10-22 09:28 pm (UTC)
   Предатель учит других как им так же предавать Родину
   Ты там не захлебнись навозом на птицефабрике
     * Reply
     * Thread
     *
     __________________________________________________________________

   [userinfo_v8.svg?v=17080?v=628] penetrat0r
   2022-10-23 05:54 am (UTC)
   Нелюдь, Вам с Парашкой подыхать, а тут про другое.
   Адью.
     * Reply
     * Parent
     * Thread
     *
     __________________________________________________________________

   [userinfo_v8.svg?v=17080?v=628] oleg_sentia
   2022-10-24 08:03 am (UTC)
   Фашист отличается от нормального человека тем, что для фашиста главное
   это его государство, а народ бабы нарожают. Фашистов еще называют
   левыми, это недозрлые фашисты.
   У нормальных людей главное - это человек, и уже эти люди объединяются в
   державы или в страны.
   Но не в государства, государство может быть только фашистским. Ибо есть
   государь, а есть его рабы.
   У фашиста - да, смена государства на страну - это предательство.
   Для нормального же человека это как поменять работу.
     * Reply
     * Parent
     * Thread
     *
     __________________________________________________________________

   [userinfo_v8.svg?v=17080?v=628] atatatko
   2022-11-16 05:37 pm (UTC)
   Нацисткий выблядок, я предал твою фашистскую ублюдию, и горжусь этим.
   Сколько раз надо — столько и предам, понял, детоубийца, мразь?
     * Reply
     * Parent
     * Thread
     *
     __________________________________________________________________

   [userinfo_v8.svg?v=17080?v=628] kh_sugutskiy
   2022-11-16 07:30 pm (UTC)
   На хер мне твои дети. Ваши гандоны угрожали России. Мне насрать как ты
   там пашешь , я лично дома работаю три часа в день
     * Reply
     * Parent
     * Thread
     *
     __________________________________________________________________

   [google.svg?v=29916?v=628] Vol Ubis
   2022-10-23 03:47 am (UTC)
   Два мира - два Шапиро. Это читать гораздо приятнее, чем байки про
   миллионера, двадцать лет получающего гражданство Гренады)))
     * Reply
     * Thread
     *
     __________________________________________________________________

   [userinfo_v8.svg?v=17080?v=628] moya_shweizaria
   2022-10-23 06:21 am (UTC)
   Давно уже описывали пути получения ВНЖ в странах Балтии, Испании. Не
   гражданство, но не всё сразу.
     * Reply
     * Thread
     *
     __________________________________________________________________

   [google.svg?v=29916?v=628] Egor Konovalov
   2022-10-23 08:11 pm (UTC)
   >работайте удалённо, желательно на северную америку а не на европу
   А с Европой что не так?
     * Reply
     * Thread
     *
     __________________________________________________________________

   [userinfo_v8.svg?v=17080?v=628] qfero
   2022-10-25 07:26 am (UTC)

   Вот это нормальный пост. А не пурга про "каждый может" и "стоит только
   захотеть".

   >> только после грузинской авантюры в 2008 году

   Там была не авантюра, а очень неплохой замысел. Просто РФ очень сильно
   повезло.
     * Reply
     * Thread
     *
     __________________________________________________________________

   [userinfo_v8.svg?v=17080?v=628] ahapen
   2022-10-31 01:28 pm (UTC)
   Эх, мне один проживающий в масквабаде родственник уже много лет капает
   на мозги этой Канадой, примерно с тех пор как я репатриировался в
   Украину, он меня регулярно уговаривал что типа надо двигаться дальше в
   Канаду, я уже устал было отговорки придумывать (т.к. фактически мне
   просто нафиг не нужна эта Канада когда у меня есть Украина, но такая
   причина абсолютно не воспринимается той стороной), а тут началось
   полномасштабное вторжение и появился CUAET... в общем, пока спасает
   только ограничение на выезд как железобетонная отмазка)
     * Reply
     * Thread
     *
     __________________________________________________________________

   [userinfo_v8.svg?v=17080?v=628] blazzer
   2022-10-31 04:17 pm (UTC)
   cuaet не факт что будет продлён. это once in a lifetime opportunity
   реально, такие бенефиты и помощь от коммунки до того не давали никому и
   скорее всего больше никому никогда давать не будут.
     * Reply
     * Parent
     * Thread
     *
     __________________________________________________________________

   [userinfo_v8.svg?v=17080?v=628] ahapen
   2022-10-31 05:50 pm (UTC)
   Ну, учитывая в связи с чем возникла эта opportunity, лучше бы в нашем
   lifetime она не возникала..
   Ну а так, в принципе я до конца года наверно всё-таки подам заявку, во
   первых чтобы выше описаный персонаж успокоился, ну и во вторых получить
   визу не значит [DEL: жениться :DEL] иммигрировать. Хотя кроме как в
   самом мега-пессимистическом исходе (опять же, пока существует
   независимая Украина я никуда не поеду) я не могу представить чтобы я ей
   воспользовался. Но думаю может действительно канадская виза пригодится
   хотя бы тем, что когда наконец вернётся возможность свободно
   путешествовать в пост-военном и пост-ковидном мире, то проще будет
   получать разные визы, ну и вообще въезжать в "строгие" страны, имея в
   анамнезе канадскую визу (таким образом косвенно подтверждая, что у меня
   намерения нелегально иммигрировать ниже плинтуса).
     * Reply
     * Parent
     * Thread
     *
     __________________________________________________________________

   ( 14 comments — Leave a comment )
     __________________________________________________________________

     * ←
     * 1
     * →
     __________________________________________________________________

   Links
          Тэги сообщества (как искать информацию)
          Куда валить из России?
          Как свалить из России?
          Пора валить в Facebook
          Пора валить вконтакте
          Как пожаловаться на тролля
     __________________________________________________________________

   Tags
          Россия, США, аргументы - за отъезд, личный опыт, вопросы,
          Германия, вопросы - куда валить?, работа за границей, видео,
          Канада, менталитет, статистика, пора валить, сравнение,
          размышления, финансы - деньги, вопросы - как свалить?, юмор,
          Европа, фото, образование, эмиграция, быт - недвижимость,
          политика - законы, прогноз, дети, быт - цены, медицина, Франция,
          Испания, …
     __________________________________________________________________

   Categories
          it, авиация, авто, армия, архитектура, беларусь, город, дети,
          еда, животные, здоровье, знаменитости, искусство, история, кино,
          компьютеры, корабли, космос, криминал, литература, лытдыбр,
          медицина, музыка, напитки, наука, недвижимость, образование,
          общество, отношения, политика, праздники, природа, производство,
          происшествия, психология, путешествия, работа, религия, россия,
          семья, спорт, ссср, техника, технологии, транспорт, финансы,
          экология, экономика, энергетика, юмор, …

   Comments

          + pora_valit
            [userinfo_v8.svg?v=17080?v=628] windy1city
            10 Jan 2023, 23:19
            Отличие россии от США, или немного истории...
            Главное -- не останавливайтесь. Продолжайте демонстрировать.
          + pora_valit
            [mailru.svg?v=12149?v=628] С Б
            10 Jan 2023, 19:32
            Отличие россии от США, или немного истории...
            Мамкин шовинист рассуждает об апломбе. Прэлестно)))
          + pora_valit
            [userinfo_v8.svg?v=17080?v=628] windy1city
            10 Jan 2023, 16:07
            Отличие россии от США, или немного истории...
            Иет ересно, почему русское любит с таким апломбом рассуждать о
            том, чего не только не понимает, но даже не знает что надо бы
            понимать?
            Впрочем, не интересно. Просто потому что русское.
          + pora_valit
            [userinfo_v8.svg?v=17080?v=628] penetrat0r
            10 Jan 2023, 10:32
            Как свободная Германия рождественского хомячка спасла, или
            крушение имперских надежд...
            Они происходят, вот терминалы для газификации сжиженного газа
            из танкеров построили и продолжают строить. Парашка идёт
            нахер.
          + pora_valit
            [userinfo_v8.svg?v=17080?v=628] penetrat0r
            10 Jan 2023, 10:31
            Как свободная Германия рождественского хомячка спасла, или
            крушение имперских надежд...
            Процесс уничтожения Парашки неплохо так идёт, методика на
            сссрне вполне проверена ;)
     __________________________________________________________________

                                 реклама тут
                         "Пора валить" в соц. сетях.
       [23966_900.png] [22910_900.png] [23318_900.png] [23665_900.png]

                         Поиск по сообществу
                         ____________________ Найти
                         [X] по комментариям
                         Яндекс
     __________________________________________________________________

   [7y5zWVMgFYL11_xdgIjCD2PmkYKSHyxEdJhvf_FWv3gsqLCPBzDFsgH59srBuMyPHC18LZ
   _7yaL-8OaIXxdfbXav0e0n88V6mT2fcG7M1XA]
   [7y5zWVMgFYL11_xdgIjCD2PmkYKSHyxEdJhvf_FWv3gsqLCPBzDFsgH59srBuMyPHC18LZ
   _7yaL-8OaIXxdfbcpIvt_67jbHG7rBuuzc2vU]
     __________________________________________________________________

   [7y5zWVMgFYL11_xdgIjCD2PmkYKSHyxEdJhvf_FWv3gsqLCPBzDFsgH59srBuMyPHC18LZ
   _7yaL-8OaIXxdfba5jNJUSxmyccEoWwY2yMPw]
   Идет профилактика робота, возможны задержки реагирования.
   Яндекс.Метрика

   Powered by LiveJournal.com

   [12408565]

   Топ-100 [top100.cnt?pid=1111412]
